<define-tag pagetitle>DSA-4339-1 ceph</define-tag>
<define-tag report_date>2018-11-13</define-tag>
<define-tag secrefs>CVE-2017-7519 CVE-2018-10861 CVE-2018-1128 CVE-2018-1129</define-tag>
<define-tag packages>ceph</define-tag>
<define-tag isvulnerable>yes</define-tag>
<define-tag fixed>yes</define-tag>
<define-tag fixed-section>no</define-tag>

#use wml::debian::security



</dl>
