<define-tag pagetitle>DLA-2918-1 debian-edu-config</define-tag>
<define-tag report_date>2022-02-12</define-tag>
<define-tag secrefs>CVE-2021-20001</define-tag>
<define-tag packages>debian-edu-config</define-tag>
<define-tag isvulnerable>yes</define-tag>
<define-tag fixed>yes</define-tag>
<define-tag fixed-section>no</define-tag>

#use wml::debian::security

