<define-tag pagetitle>DSA-4822-1 p11-kit</define-tag>
<define-tag report_date>2021-1-01</define-tag>
<define-tag secrefs>CVE-2020-29361 CVE-2020-29362 CVE-2020-29363</define-tag>
<define-tag packages>p11-kit</define-tag>
<define-tag isvulnerable>yes</define-tag>
<define-tag fixed>yes</define-tag>
<define-tag fixed-section>no</define-tag>

#use wml::debian::security



</dl>
