
		       Tally Sheet for the votes cast. 
 
   The format is:
       "V: vote 	Login	Name"
 The vote block represents the ranking given to each of the 
 candidates by the voter. 
 -=-=-=-=-=-=-=-=-=-=-=-=-=-=-=-=-=-=-=-=-=-=-=-=-=-=-=-=-=-=-=-=-=-=
 -=-=-=-=-=-=-=-=-=-=-=-=-=-=-=-=-=-=-=-=-=-=-=-=-=-=-=-=-=-=-=-=-=-=

     Option 1---->: Option 1
   /  Option 2--->: Option 2
   |/  Option 3-->: Further Discussion
   ||/
V: 123	          93sam	Steve McIntyre
V: 123	           acid	Julien Danjou
V: -1-	          adamm	Adam Majer
V: 123	            adn	Mohammed Adnène Trojette
V: 123	            ajt	Anthony Towns
V: 123	        alessio	Alessio Treglia
V: 213	          alexp	Alex Pennace
V: 213	       amacater	Andrew Martin Adrian Cater
V: 111	          amaya	Amaya Rodrigo Sastre
V: 112	            ana	Ana Guerrero López
V: 123	        anarcat	Antoine Beaupré
V: -13	           anbe	Andreas Beckmann
V: 123	           andi	Andreas Mundt
V: 221	          angel	Angel Abad
V: 123	         anibal	Anibal Monsalve Salazar
V: 123	       apollock	Andrew Pollock
V: 123	           arno	Arno Töll
V: 123	        aurel32	Aurelien Jarno
V: --1	      awoodland	Alan Woodland
V: 123	             az	Alexander Zangerl
V: 21-	       azekulic	Alen Zekulic
V: 321	       ballombe	Bill Allombert
V: 321	            bap	Barak Pearlmutter
V: 11-	            bas	Bas Zoetekouw
V: 213	          bdale	Bdale Garbee
V: 213	         bdrung	Benjamin Drung
V: 123	           benh	Ben Hutchings
V: 123	           beuc	Sylvain Beucler
V: 132	        bgoglin	Brice Goglin
V: 123	          biebl	Michael Biebl
V: --1	            bod	Brendan O'Dea
V: 21-	         boutil	Cédric Boutillier
V: 123	        bremner	David Bremner
V: 123	        broonie	Mark Brown
V: --1	        bubulle	Christian Perrier
V: 213	           bzed	Bernd Zeimetz
V: 123	         carnil	Salvatore Bonaccorso
V: 213	          cklin	Chuan-kai Lin
V: 132	          clint	Clint Adams
V: 132	       codehelp	Neil Williams
V: 21-	         colint	Colin Tuckley
V: 123	        ctaylor	Christopher Taylor
V: 123	         cworth	Carl Worth
V: 123	            dai	Daisuke Higuchi
V: 123	          dapal	David Paleino
V: 132	      debalance	Philipp Huebner
V: 123	      dktrkranz	Luca Falavigna
V: 213	        dmartin	Dale Martin
V: 123	            dmn	Damyan Ivanov
V: 213	            dod	Dominique Dumont
V: 123	            don	Don Armstrong
V: 1-2	        drazzib	Damien Raude-Morvan
V: 321	           eike	Eike Sauer
V: 11-	         elbrus	Paul Gevers
V: 112	         enrico	Enrico Zini
V: 312	           eric	Eric Dorland
V: 123	            evo	Davide Puricelli
V: 123	          fabbe	Fabian Fagerholm
V: 132	            faw	Felipe van de Wiel
V: 113	         fgeyer	Felix Geyer
V: 123	        filippo	Filippo Giunchedi
V: 123	        florian	Florian Ernst
V: 112	        fpeters	Frederic Peters
V: 213	      francisco	Francisco Claramonte
V: 213	       francois	Francois Marier
V: 123	       fsateler	Felipe Sateler
V: 113	           fsfs	Florian Schlichting
V: 213	         garden	Ludovico Gardenghi
V: 123	 gareuselesinge	Enrico Tassi
V: 123	        gaudenz	Gaudenz Steinlin
V: 213	       georgesk	Georges Khaznadar
V: 12-	          ghedo	Alessandro Ghedini
V: 123	       ghostbar	Jose Rivas Contreras
V: 123	            gio	Giovanni Mascellani
V: 133	          gismo	Luca Capello
V: 123	          gladk	Anton Gladky
V: 123	         gniibe	NIIBE Yutaka
V: 321	        godisch	Martin Godisch
V: 12-	         goneri	Gonéri Le Bouder
V: 123	         gregoa	Gregor Herrmann
V: 123	        guillem	Guillem Jover
V: 132	            gus	Angus Lees
V: 112	         gusnan	Andreas Rönnquist
V: 213	           guus	Guus Sliepen
V: 12-	          gwolf	Gunnar Wolf
V: 123	          hakan	Hakan Ardo
V: 123	       hartmans	Sam Hartman
V: 123	        helmutg	Helmut Grohne
V: 12-	        hertzog	Raphaël Hertzog
V: 231	          horms	Simon Horman
V: 132	     hvhaugwitz	Hannes von Haugwitz
V: 123	      intrigeri	- Intrigeri
V: 21-	         iustin	Iustin Pop
V: 123	          ivodd	Ivo De Decker
V: 132	            iwj	Ian Jackson
V: 112	            jak	Julian Klode
V: 213	            jan	Jan Niehusmann
V: 21-	          jandd	Jan Dittberner
V: --1	         jaqque	John Robinson
V: 1--	       jcorbier	Jérémie Corbier
V: 123	       jcristau	Julien Cristau
V: 12-	            jdg	Julian Gilbey
V: 123	            jmw	Jonathan Wiltshire
V: 213	          jordi	Jordi Mallach
V: 123	           joss	Josselin Mouette
V: 12-	            jsw	John Wright
V: 123	          jwilk	Jakub Wilk
V: 123	         kartik	Kartik Mistry
V: 21-	        kcoyner	Kevin Coyner
V: 213	         keithp	Keith Packard
V: 1--	           kibi	Cyril Brulebois
V: 321	      kitterman	Scott Kitterman
V: 213	          kmuto	Kenshi Muto
V: 123	           knok	Takatsugu Nokubi
V: 132	         kolter	Emmanuel Bouthenot
V: 12-	         koster	Kanru Chen
V: -1-	          lange	Thomas Lange
V: 123	       lfilipoz	Luca Filipozzi
V: 112	       lisandro	Lisandro Damián Nicanor Pérez Meyer
V: 132	         lkajan	Laszlo Kajan
V: 123	           lool	Loïc Minier
V: 12-	        lopippo	Filippo Rusconi
V: 213	          lucab	Luca Bruno
V: 213	          lucas	Lucas Nussbaum
V: 213	          luigi	Luigi Gangitano
V: 12-	            luk	Luk Claes
V: 112	          lunar	Jérémy Bobbio
V: 213	        madduck	Martin Krafft
V: 123	           mafm	Manuel A. Fernandez Montecelo
V: 213	            mak	Matthias Klumpp
V: 123	           maks	Maximilian Attems
V: 123	       malattia	Mattia Dongili
V: 213	          marga	Margarita Manterola
V: 213	          mattb	Matthew Brown
V: 213	        matthew	Matthew Vernon
V: 123	           maxy	Maximiliano Curia
V: 321	          mbuck	Martin Buck
V: 123	         merker	Karsten Merker
V: 123	            mfv	Matteo Vescovi
V: 123	       mgilbert	Michael Gilbert
V: 321	          micha	Micha Lenk
V: 123	           mika	Michael Prokop
V: 321	      mithrandi	Tristan Seligmann
V: 21-	          mones	Ricardo Lastra
V: 321	          mpitt	Martin Pitt
V: 1--	             mt	Michael Tautschnig
V: 123	       mtmiller	Mike Miller
V: 12-	           myon	Christoph Berg
V: 213	         nbreen	Nicholas Breen
V: 213	           neil	Neil Roeth
V: 123	          neilm	Neil McGovern
V: 213	          nijel	Michal Cihar
V: 213	          noahm	Noah Meyerhans
V: 213	           noel	Noèl Köthe
V: 11-	        nomeata	Joachim Breitner
V: 213	        noodles	Jonathan McDowell
V: 112	       nthykier	Niels Thykier
V: 213	           odyx	Didier Raboud
V: 123	          olasd	Nicolas Dandrimont
V: 123	           olly	Olly Betts
V: 112	         ondrej	Ondrej Sury
V: 123	          osamu	Osamu Aoki
V: 221	           pabs	Paul Wise
V: 123	        paultag	Paul Tagliamonte
V: 321	       pfaffben	Ben Pfaff
V: 12-	          philh	Philip Hands
V: 12-	           piem	Paul Brossier
V: 112	           pini	Gilles Filippini
V: 123	          piotr	Piotr Ożarowski
V: 123	            pjb	Phil Brooke
V: 123	          pkern	Philipp Kern
V: 123	         plessy	Charles Plessy
V: 123	      pmatthaei	Patrick Matthäi
V: --1	         pmhahn	Philipp Hahn
V: 123	            ras	Russell Stuart
V: 213	        reichel	Joachim Reichel
V: 123	     rfrancoise	Romain Francoise
V: 213	         richih	Richard Hartmann
V: 213	           riku	Riku Voipio
V: 123	         rleigh	Roger Leigh
V: 213	       rmayorga	Rene Mayorga
V: 1--	        roberto	Roberto Sanchez
V: 21-	        robotux	Thomas Preud'homme
V: 213	       rousseau	Ludovic Rousseau
V: 123	            rra	Russ Allbery
V: 213	        sathieu	Mathieu Parent
V: 11-	            seb	Sebastien Delafond
V: 123	      sebastien	Sébastien Villemot
V: 123	             sf	Stefan Fritsch
V: 123	          sgran	Stephen Gran
V: -2-	        showard	Scott Howard
V: 112	          smurf	Matthias Urlichs
V: 123	      sramacher	Sebastian Ramacher
V: 123	            sre	Sebastian Reichel
V: 123	            ssm	Stig Mathisen
V: 123	       stefanor	Stefano Rivera
V: 123	         stuart	Stuart Prescott
V: 1-2	         taffit	David Prévot
V: 132	         tanguy	Tanguy Ortolo
V: 123	            tbm	Martin Michlmayr
V: 321	       terceiro	Antonio Terceiro
V: 123	        thansen	Tobias Hansen
V: 213	            thb	Thaddeus Black
V: 11-	          thijs	Thijs Kinkhorst
V: 12-	            tin	Agustin Henze
V: 112	         tincho	Martín Ferrari
V: 123	       tjhukkan	Teemu Hukkanen
V: 123	         tobald	Christophe Siraut
V: 213	           tobi	Tobias Frost
V: 123	          toddy	Tobias Quathamer
V: 312	          tomfa	Tomas Fasth
V: -1-	           toni	Toni Mueller
V: 12-	        treinen	Ralf Treinen
V: 321	          tytso	Theodore Ts'o
V: 213	           ucko	Aaron Ucko
V: 123	         uhoreg	Hubert Chan
V: 123	      ultrotter	Guido Trotter
V: 21-	       umlaeute	IOhannes zmölnig
V: 12-	        vagrant	Vagrant Cascadian
V: 213	        vanicat	Remi Vanicat
V: 123	         vcheng	Vincent Cheng
V: 123	       vdanjean	Vincent Danjean
V: 123	          vicho	Javier Merino Cacho
V: 123	          viiru	Arto Jantunen
V: 123	        vlegout	Vincent Legout
V: 132	         vorlon	Steve Langasek
V: --1	          waldi	Bastian Blank
V: 123	         warp10	Andrea Colangelo
V: 213	            wdg	Daniel Glassey
V: 321	         weasel	Peter Palfrader
V: 11-	         wijnen	Bas Wijnen
V: 213	         wookey	Wookey
V: 213	         wouter	Wouter Verhelst
V: 112	           wrar	Andrey Rahmatullin
V: 123	            xam	Max Vozeler
V: 123	           zack	Stefano Zacchiroli
V: 21-	           zeha	Christian Hofstaedtler
V: 123	          zobel	Martin Zobel-Helas
