<define-tag pagetitle>DSA-4654-1 chromium</define-tag>
<define-tag report_date>2020-4-07</define-tag>
<define-tag secrefs>CVE-2020-6450 CVE-2020-6451 CVE-2020-6452</define-tag>
<define-tag packages>chromium</define-tag>
<define-tag isvulnerable>yes</define-tag>
<define-tag fixed>yes</define-tag>
<define-tag fixed-section>no</define-tag>

#use wml::debian::security



</dl>
