<define-tag pagetitle>DLA-2839-1 gerbv</define-tag>
<define-tag report_date>2021-12-03</define-tag>
<define-tag secrefs>CVE-2021-40391</define-tag>
<define-tag packages>gerbv</define-tag>
<define-tag isvulnerable>yes</define-tag>
<define-tag fixed>yes</define-tag>
<define-tag fixed-section>no</define-tag>

#use wml::debian::security

