<define-tag pagetitle>DLA-2660-1 libgetdata</define-tag>
<define-tag report_date>2021-05-13</define-tag>
<define-tag secrefs>CVE-2021-20204</define-tag>
<define-tag packages>libgetdata</define-tag>
<define-tag isvulnerable>yes</define-tag>
<define-tag fixed>yes</define-tag>
<define-tag fixed-section>no</define-tag>

#use wml::debian::security

