<define-tag pagetitle>DLA-2522-1 coturn</define-tag>
<define-tag report_date>2021-01-12</define-tag>
<define-tag secrefs>CVE-2020-26262</define-tag>
<define-tag packages>coturn</define-tag>
<define-tag isvulnerable>yes</define-tag>
<define-tag fixed>yes</define-tag>
<define-tag fixed-section>no</define-tag>

#use wml::debian::security

