<define-tag pagetitle>DLA-2642-1 gst-plugins-bad1.0</define-tag>
<define-tag report_date>2021-04-27</define-tag>
<define-tag secrefs>not yet available</define-tag>
<define-tag packages>gst-plugins-bad1.0</define-tag>
<define-tag isvulnerable>yes</define-tag>
<define-tag fixed>yes</define-tag>
<define-tag fixed-section>no</define-tag>

#use wml::debian::security

