<define-tag pagetitle>DLA-2635-1 libspring-java</define-tag>
<define-tag report_date>2021-04-23</define-tag>
<define-tag secrefs>CVE-2018-1270 CVE-2018-11039 CVE-2018-11040 CVE-2018-15756 Bug#895114 Bug#911786</define-tag>
<define-tag packages>libspring-java</define-tag>
<define-tag isvulnerable>yes</define-tag>
<define-tag fixed>yes</define-tag>
<define-tag fixed-section>no</define-tag>

#use wml::debian::security

