<define-tag pagetitle>DLA-0007-1 linux-2.6</define-tag>
<define-tag report_date>2014-6-18</define-tag>
<define-tag secrefs>CVE-2014-3153 CVE-2014-1438</define-tag>
<define-tag packages>linux-2.6</define-tag>
<define-tag isvulnerable>yes</define-tag>
<define-tag fixed>yes</define-tag>
<define-tag fixed-section>no</define-tag>

#use wml::debian::security

