<define-tag pagetitle>DLA-773-4 python-crypto</define-tag>
<define-tag report_date>2017-1-10</define-tag>
<define-tag packages>python-crypto</define-tag>
<define-tag isvulnerable>yes</define-tag>
<define-tag fixed>yes</define-tag>
<define-tag fixed-section>no</define-tag>

#use wml::debian::security

