<define-tag pagetitle>DLA-878-1 libytnef</define-tag>
<define-tag report_date>2017-3-28</define-tag>
<define-tag secrefs>CVE-2017-6298 CVE-2017-6299 CVE-2017-6300 CVE-2017-6301 CVE-2017-6302 CVE-2017-6303 CVE-2017-6304 CVE-2017-6305 CVE-2017-6801 CVE-2017-6802</define-tag>
<define-tag packages>libytnef</define-tag>
<define-tag isvulnerable>yes</define-tag>
<define-tag fixed>yes</define-tag>
<define-tag fixed-section>no</define-tag>

#use wml::debian::security

