<define-tag pagetitle>DLA-967-1 gajim</define-tag>
<define-tag report_date>2017-5-30</define-tag>
<define-tag secrefs>CVE-2016-10376 Bug#863445</define-tag>
<define-tag packages>gajim</define-tag>
<define-tag isvulnerable>yes</define-tag>
<define-tag fixed>yes</define-tag>
<define-tag fixed-section>no</define-tag>

#use wml::debian::security

