<define-tag pagetitle>DLA-910-1 libreoffice</define-tag>
<define-tag report_date>2017-4-23</define-tag>
<define-tag secrefs>CVE-2017-3157 CVE-2017-7870</define-tag>
<define-tag packages>libreoffice</define-tag>
<define-tag isvulnerable>yes</define-tag>
<define-tag fixed>yes</define-tag>
<define-tag fixed-section>no</define-tag>

#use wml::debian::security

