<define-tag pagetitle>DLA-795-1 hesiod</define-tag>
<define-tag report_date>2017-1-23</define-tag>
<define-tag secrefs>CVE-2016-10151 CVE-2016-10152 Bug##852094 Bug#852093</define-tag>
<define-tag packages>hesiod</define-tag>
<define-tag isvulnerable>yes</define-tag>
<define-tag fixed>yes</define-tag>
<define-tag fixed-section>no</define-tag>

#use wml::debian::security

