<define-tag pagetitle>DLA-1021-1 jetty8</define-tag>
<define-tag report_date>2017-7-11</define-tag>
<define-tag secrefs>CVE-2017-9735 Bug#864898</define-tag>
<define-tag packages>jetty8</define-tag>
<define-tag isvulnerable>yes</define-tag>
<define-tag fixed>yes</define-tag>
<define-tag fixed-section>no</define-tag>

#use wml::debian::security

