<define-tag pagetitle>DLA-808-1 ruby-archive-tar-minitar</define-tag>
<define-tag report_date>2017-1-30</define-tag>
<define-tag secrefs>CVE-2016-10173 Bug#853249</define-tag>
<define-tag packages>ruby-archive-tar-minitar</define-tag>
<define-tag isvulnerable>yes</define-tag>
<define-tag fixed>yes</define-tag>
<define-tag fixed-section>no</define-tag>

#use wml::debian::security

