<define-tag pagetitle>DLA-2126-1 gst-plugins-base0.10</define-tag>
<define-tag report_date>2020-2-28</define-tag>
<define-tag secrefs>CVE-2016-9811 CVE-2017-5837 CVE-2017-5844</define-tag>
<define-tag packages>gst-plugins-base0.10</define-tag>
<define-tag isvulnerable>yes</define-tag>
<define-tag fixed>yes</define-tag>
<define-tag fixed-section>no</define-tag>

#use wml::debian::security

