<define-tag pagetitle>DLA-2278-2 squid3</define-tag>
<define-tag report_date>2020-8-13</define-tag>
<define-tag secrefs>Bug#965012</define-tag>
<define-tag packages>squid3</define-tag>
<define-tag isvulnerable>yes</define-tag>
<define-tag fixed>yes</define-tag>
<define-tag fixed-section>no</define-tag>

#use wml::debian::security

