<define-tag pagetitle>DLA-2066-1 gthumb</define-tag>
<define-tag report_date>2020-01-19</define-tag>
<define-tag secrefs>CVE-2019-20326</define-tag>
<define-tag packages>gthumb</define-tag>
<define-tag isvulnerable>yes</define-tag>
<define-tag fixed>yes</define-tag>
<define-tag fixed-section>no</define-tag>

#use wml::debian::security

