<define-tag pagetitle>DLA-2072-1 gpac</define-tag>
<define-tag report_date>2020-01-20</define-tag>
<define-tag secrefs>CVE-2018-21015 CVE-2018-21016 CVE-2019-13618 CVE-2019-20161 CVE-2019-20162 CVE-2019-20163 CVE-2019-20165 CVE-2019-20170 CVE-2019-20171 CVE-2019-20208 Bug#940882 Bug#932242</define-tag>
<define-tag packages>gpac</define-tag>
<define-tag isvulnerable>yes</define-tag>
<define-tag fixed>yes</define-tag>
<define-tag fixed-section>no</define-tag>

#use wml::debian::security

