<define-tag pagetitle>DLA-2169-1 libmtp</define-tag>
<define-tag report_date>2020-04-05</define-tag>
<define-tag secrefs>CVE-2017-9831 CVE-2017-9832</define-tag>
<define-tag packages>libmtp</define-tag>
<define-tag isvulnerable>yes</define-tag>
<define-tag fixed>yes</define-tag>
<define-tag fixed-section>no</define-tag>

#use wml::debian::security

