<define-tag pagetitle>DLA-2494-1 linux</define-tag>
<define-tag report_date>2020-12-18</define-tag>
<define-tag secrefs>CVE-2020-0427 CVE-2020-8694 CVE-2020-14351 CVE-2020-25645 CVE-2020-25656 CVE-2020-25668 CVE-2020-25669 CVE-2020-25704 CVE-2020-25705 CVE-2020-27673 CVE-2020-27675 CVE-2020-28974</define-tag>
<define-tag packages>linux</define-tag>
<define-tag isvulnerable>yes</define-tag>
<define-tag fixed>yes</define-tag>
<define-tag fixed-section>no</define-tag>

#use wml::debian::security

