<define-tag pagetitle>DLA-2237-1 cups</define-tag>
<define-tag report_date>2020-06-07</define-tag>
<define-tag secrefs>CVE-2019-8842 CVE-2020-3898</define-tag>
<define-tag packages>cups</define-tag>
<define-tag isvulnerable>yes</define-tag>
<define-tag fixed>yes</define-tag>
<define-tag fixed-section>no</define-tag>

#use wml::debian::security

