<define-tag pagetitle>DLA-1260-1 tiff3</define-tag>
<define-tag report_date>2018-1-27</define-tag>
<define-tag secrefs>CVE-2017-18013 Bug#885985</define-tag>
<define-tag packages>tiff3</define-tag>
<define-tag isvulnerable>yes</define-tag>
<define-tag fixed>yes</define-tag>
<define-tag fixed-section>no</define-tag>

#use wml::debian::security

