<define-tag pagetitle>DLA-1432-1 gpac</define-tag>
<define-tag report_date>2018-7-19</define-tag>
<define-tag secrefs>CVE-2018-13005 CVE-2018-13006 Bug#902782</define-tag>
<define-tag packages>gpac</define-tag>
<define-tag isvulnerable>yes</define-tag>
<define-tag fixed>yes</define-tag>
<define-tag fixed-section>no</define-tag>

#use wml::debian::security

