<define-tag pagetitle>DLA-1807-1 vcftools</define-tag>
<define-tag report_date>2019-5-27</define-tag>
<define-tag secrefs>CVE-2018-11099 CVE-2018-11129 CVE-2018-11130</define-tag>
<define-tag packages>vcftools</define-tag>
<define-tag isvulnerable>yes</define-tag>
<define-tag fixed>yes</define-tag>
<define-tag fixed-section>no</define-tag>

#use wml::debian::security

