<define-tag pagetitle>DLA-1801-1 zookeeper</define-tag>
<define-tag report_date>2019-05-24</define-tag>
<define-tag secrefs>CVE-2019-0201</define-tag>
<define-tag packages>zookeeper</define-tag>
<define-tag isvulnerable>yes</define-tag>
<define-tag fixed>yes</define-tag>
<define-tag fixed-section>no</define-tag>

#use wml::debian::security
