<define-tag pagetitle>DLA-1847-1 squid3</define-tag>
<define-tag report_date>2019-07-07</define-tag>
<define-tag secrefs>CVE-2019-13345</define-tag>
<define-tag packages>squid3</define-tag>
<define-tag isvulnerable>yes</define-tag>
<define-tag fixed>yes</define-tag>
<define-tag fixed-section>no</define-tag>

#use wml::debian::security
