<define-tag pagetitle>DLA-1890-1 kde4libs</define-tag>
<define-tag report_date>2019-8-19</define-tag>
<define-tag secrefs>CVE-2019-14744 Bug#934268</define-tag>
<define-tag packages>kde4libs</define-tag>
<define-tag isvulnerable>yes</define-tag>
<define-tag fixed>yes</define-tag>
<define-tag fixed-section>no</define-tag>

#use wml::debian::security

