<define-tag pagetitle>DLA-623-1 tomcat7</define-tag>
<define-tag report_date>2016-9-15</define-tag>
<define-tag secrefs>CVE-2016-1240</define-tag>
<define-tag packages>tomcat7</define-tag>
<define-tag isvulnerable>yes</define-tag>
<define-tag fixed>yes</define-tag>
<define-tag fixed-section>no</define-tag>

#use wml::debian::security

