<define-tag pagetitle>DLA-690-1 tar</define-tag>
<define-tag report_date>2016-10-31</define-tag>
<define-tag secrefs>CVE-2016-6321 Bug#842339</define-tag>
<define-tag packages>tar</define-tag>
<define-tag isvulnerable>yes</define-tag>
<define-tag fixed>yes</define-tag>
<define-tag fixed-section>no</define-tag>

#use wml::debian::security

