<define-tag pagetitle>DLA-661-1 libarchive</define-tag>
<define-tag report_date>2016-10-17</define-tag>
<define-tag secrefs>CVE-2016-8687 CVE-2016-8688 CVE-2016-8689 Bug#840934 Bug#840935 Bug#840936</define-tag>
<define-tag packages>libarchive</define-tag>
<define-tag isvulnerable>yes</define-tag>
<define-tag fixed>yes</define-tag>
<define-tag fixed-section>no</define-tag>

#use wml::debian::security

