<define-tag pagetitle>DLA-674-1 ghostscript</define-tag>
<define-tag report_date>2016-10-25</define-tag>
<define-tag secrefs>CVE-2013-5653 CVE-2016-7976 CVE-2016-7977 CVE-2016-7978 CVE-2016-7979 CVE-2016-8602 Bug#839118 Bug#839260 Bug#839841 Bug#839845 Bug#839846 Bug#840451</define-tag>
<define-tag packages>ghostscript</define-tag>
<define-tag isvulnerable>yes</define-tag>
<define-tag fixed>yes</define-tag>
<define-tag fixed-section>no</define-tag>

#use wml::debian::security

